{
  "baseUrl": "${GB_URL}",
  "chromeWebSecurity": false,
  "video": false,
  "fixturesFolder": "cypress/fixtures/dev",
  "env": {
    "apiUrl": "${GB_URL}/api/transmart-api-server",
    "authentication-service-type": "oidc",
    "oidc-server-url": "${OIDC_URL}",
    "oidc-client-id": "${OIDC_CLIENT_ID}",
    "gb-backend-url": "${GB_URL}/api/gb-backend"
  },
  "reporter": "junit",
  "reporterOptions": {
    "mochaFile": "report/[hash].xml",
    "toConsole": true
  },
  "numTestsKeptInMemory": 3,
  "defaultCommandTimeout": 30000
}
